Lab5/simulation/qsim/lab5.msim.vcd
$comment
	File created using the following command:
		vcd file lab5.msim.vcd -direction
$end
$date
	Tue Dec 05 05:04:03 2017
$end
$version
	ModelSim Version 10.1d
$end
$timescale
	1ps
$end
$scope module g27_decision_maker_FSM_schematic_vlg_vec_tst $end
$var reg 1 ! CLK $end
$var reg 5 " COMPUTER_HAND [4:0] $end
$var reg 1 # COMPUTER_LP $end
$var reg 1 $ EN_DECISION $end
$var reg 5 % PLAYER_H [4:0] $end
$var reg 1 & PLAYER_LP $end
$var reg 1 ' RESET $end
$var wire 1 ( COMPUTER_W [1] $end
$var wire 1 ) COMPUTER_W [0] $end
$var wire 1 * ENDGAME_OUT $end
$var wire 1 + PLAYER_W [1] $end
$var wire 1 , PLAYER_W [0] $end
$var wire 1 - sampler $end
$scope module i1 $end
$var wire 1 . gnd $end
$var wire 1 / vcc $end
$var wire 1 0 unknown $end
$var tri1 1 1 devclrn $end
$var tri1 1 2 devpor $end
$var tri1 1 3 devoe $end
$var wire 1 4 inst|Selector4~0_combout $end
$var wire 1 5 inst|LessThan4~1_combout $end
$var wire 1 6 inst|Selector2~0_combout $end
$var wire 1 7 inst|Selector3~0_combout $end
$var wire 1 8 inst|Selector6~0_combout $end
$var wire 1 9 inst|Selector0~0_combout $end
$var wire 1 : CLK~combout $end
$var wire 1 ; RESET~combout $end
$var wire 1 < inst|state.s0~regout $end
$var wire 1 = inst|Selector0~1_combout $end
$var wire 1 > inst|state.s1~regout $end
$var wire 1 ? EN_DECISION~combout $end
$var wire 1 @ inst|state~12_combout $end
$var wire 1 A inst|state.s2~regout $end
$var wire 1 B PLAYER_LP~combout $end
$var wire 1 C inst|state~10_combout $end
$var wire 1 D inst|state.s3~regout $end
$var wire 1 E COMPUTER_LP~combout $end
$var wire 1 F inst|state~11_combout $end
$var wire 1 G inst|state.s4~regout $end
$var wire 1 H inst|LessThan4~2_combout $end
$var wire 1 I inst|LessThan4~3_combout $end
$var wire 1 J inst|LessThan4~4_combout $end
$var wire 1 K inst|Selector3~1_combout $end
$var wire 1 L inst|Selector6~1_combout $end
$var wire 1 M inst|Selector1~0_combout $end
$var wire 1 N inst|Selector1~1_combout $end
$var wire 1 O inst|state.s5~regout $end
$var wire 1 P inst|WideOr1~combout $end
$var wire 1 Q inst|Selector5~0_combout $end
$var wire 1 R inst|Selector5~1_combout $end
$var wire 1 S inst|Selector6~2_combout $end
$var wire 1 T inst|LessThan4~0_combout $end
$var wire 1 U inst|Selector2~1_combout $end
$var wire 1 V inst|Selector2~2_combout $end
$var wire 1 W inst|Selector6~3_combout $end
$var wire 1 X inst|Selector6~4_combout $end
$var wire 1 Y inst|end_game_out~combout $end
$var wire 1 Z inst|Selector4~1_combout $end
$var wire 1 [ inst|Selector4~2_combout $end
$var wire 1 \ PLAYER_H~combout [4] $end
$var wire 1 ] PLAYER_H~combout [3] $end
$var wire 1 ^ PLAYER_H~combout [2] $end
$var wire 1 _ PLAYER_H~combout [1] $end
$var wire 1 ` PLAYER_H~combout [0] $end
$var wire 1 a inst|computer_hand_buffer [4] $end
$var wire 1 b inst|computer_hand_buffer [3] $end
$var wire 1 c inst|computer_hand_buffer [2] $end
$var wire 1 d inst|computer_hand_buffer [1] $end
$var wire 1 e inst|computer_hand_buffer [0] $end
$var wire 1 f inst4|dffs [1] $end
$var wire 1 g inst4|dffs [0] $end
$var wire 1 h inst|player_hand_buffer [4] $end
$var wire 1 i inst|player_hand_buffer [3] $end
$var wire 1 j inst|player_hand_buffer [2] $end
$var wire 1 k inst|player_hand_buffer [1] $end
$var wire 1 l inst|player_hand_buffer [0] $end
$var wire 1 m COMPUTER_HAND~combout [4] $end
$var wire 1 n COMPUTER_HAND~combout [3] $end
$var wire 1 o COMPUTER_HAND~combout [2] $end
$var wire 1 p COMPUTER_HAND~combout [1] $end
$var wire 1 q COMPUTER_HAND~combout [0] $end
$var wire 1 r inst3|dffs [1] $end
$var wire 1 s inst3|dffs [0] $end
$upscope $end
$upscope $end
$enddefinitions $end
#0
$dumpvars
0!
b10001 "
1#
0$
b10000 %
1&
0'
0o
0n
1m
0s
0r
0)
0(
0*
0,
0+
x-
0.
1/
x0
11
12
13
04
x5
06
07
08
09
0:
0;
0<
1=
0>
0?
0@
0A
1B
0C
0D
1E
0F
0G
xH
xI
xJ
0K
0L
1M
0N
0O
0P
0Q
0R
0S
xT
0U
0V
0W
0X
0Y
0Z
0[
0`
0_
0^
0]
1\
xe
xd
xc
xb
xa
0g
0f
xl
xk
xj
xi
xh
1q
0p
$end
#5000
1!
1:
0-
1>
1<
1P
19
14
0=
1=
1Z
#10000
1$
0!
1?
0:
1-
1F
09
0=
#15000
1!
1:
0-
1G
0>
xU
1a
0b
0i
xR
0M
xK
0c
0d
1e
0l
0j
0k
1h
04
0P
0F
0T
15
1N
0H
xZ
x)
x,
0I
0Z
0U
0J
1R
0K
1)
0,
#20000
0$
0!
0?
0:
1-
#25000
1!
1:
0-
1g
1O
0G
1[
0R
1P
19
14
1M
1Q
1=
1Z
0[
0N
1(
0)
1R
0(
1)
#30000
1$
0!
1?
0:
1-
#35000
1!
1:
0-
0O
1>
09
1F
0=
#40000
b10001 %
0$
0!
1`
0?
0:
1-
0F
19
1=
#45000
1!
1:
0-
#50000
1$
0!
1?
0:
1-
1F
09
0=
#55000
1!
1:
0-
1G
0>
0R
0M
1l
04
0P
0F
1N
0Z
0Q
0)
1[
1(
#60000
0$
0!
0?
0:
1-
#65000
1!
1:
0-
1f
0g
1O
0G
1P
19
14
1M
1=
1Z
0[
0N
1[
0(
1(
#70000
1$
0!
1?
0:
1-
#75000
1!
1:
0-
0O
1>
09
1F
0=
#80000
b10011 %
b10010 %
0$
0!
0`
1_
0?
0:
1-
0F
19
1=
#85000
1!
1:
0-
#90000
1$
0!
1?
0:
1-
1F
09
0=
#95000
1!
1:
0-
1G
0>
1S
1R
0M
0l
1k
04
0P
0F
1X
1N
1H
0Z
1)
1Y
1I
1Z
1U
1J
1*
0S
0R
1K
0X
0)
1,
0Y
0*
#100000
0$
0!
0?
0:
1-
#105000
1!
1:
0-
1O
1s
0G
1P
19
14
1V
0K
0Z
0U
1M
17
1=
1Z
0[
0V
0N
1+
0,
1K
1[
0(
0+
1,
1(
#110000
1$
0!
1?
0:
1-
#115000
1!
1:
0-
0O
1>
09
1F
0=
#120000
b1 "
b0 "
b10011 %
0$
0!
1`
0q
0m
0?
0:
1-
0F
19
1=
#125000
1!
1:
0-
#130000
1$
0!
1?
0:
1-
1F
09
0=
#135000
1!
1:
0-
1G
0>
1U
0a
0M
0K
0e
1l
04
0P
0F
1V
1T
05
1N
07
0,
0I
1+
#140000
0$
0!
0?
0:
1-
#145000
1!
1:
0-
1r
1O
0s
0G
1P
19
14
0Z
0U
1M
16
1=
1Z
0[
0V
0N
1V
1[
0(
0+
1+
1(
#150000
1$
0!
1?
0:
1-
#155000
1!
1:
0-
0O
1>
09
1F
0=
#160000
b10111 %
b10101 %
b10100 %
0$
0!
0`
0_
1^
0?
0:
1-
0F
19
1=
#165000
1!
1:
0-
#170000
1$
0!
1?
0:
1-
1F
09
0=
#175000
1!
1:
0-
1G
0>
1W
1U
0M
1K
0l
1j
0k
04
0P
0F
1X
1N
0H
1,
1Y
1*
#180000
0$
0!
0?
0:
1-
#185000
1!
1:
0-
1O
1s
0G
1P
14
0W
0V
0K
0Z
0U
1M
06
17
16
1Z
0X
0[
0+
0,
1K
1V
1[
0(
1,
1+
1(
#190000
1$
0!
1?
0:
1-
#195000
1!
1:
0-
#200000
b100 "
b10100 "
b10101 "
b10101 %
0$
0!
1`
1q
1o
1m
0?
0:
1-
#205000
1!
1:
0-
#210000
1$
0!
1?
0:
1-
#215000
1!
1:
0-
#220000
0$
0!
0?
0:
1-
#225000
1!
1:
0-
#230000
1$
0!
1?
0:
1-
#235000
1!
1:
0-
#240000
1'
b10111 %
b10001 "
b1 "
b0 "
b10110 %
0$
0!
1;
0q
0o
0m
0`
1_
0?
0:
1-
0f
0r
0O
0s
0<
0[
06
0P
0N
04
07
1=
0V
0Y
0Z
0K
0(
0+
0*
0,
#245000
1!
1:
0-
#250000
1$
0!
1?
0:
1-
#255000
1!
1:
0-
#260000
0$
0!
0?
0:
1-
#265000
1!
1:
0-
#270000
1$
0!
1?
0:
1-
#275000
1!
1:
0-
#280000
b110 %
b10 %
0'
b0 %
0$
0!
0_
0^
0\
0;
0?
0:
1-
#285000
1!
1:
0-
1>
1<
1P
19
14
0=
1=
1Z
#290000
1$
0!
1?
0:
1-
1F
09
0=
#295000
1!
1:
0-
1G
0>
1U
0M
1K
0j
0h
04
0P
0F
1N
0T
15
1,
0Z
0U
0J
1R
0K
1)
0,
#300000
b1000 %
0&
b1001 %
b11001 %
0$
0!
1`
1]
1\
0B
0?
0:
1-
1l
1i
1h
1H
1T
05
1Z
1U
1J
0R
1K
0)
1,
#305000
1!
1:
0-
1O
1s
0G
1P
19
14
1V
0K
0Z
0U
1M
17
1=
1Z
0V
0N
1+
0,
1K
0+
1,
#310000
1$
0!
1?
0:
1-
#315000
1!
1:
0-
0O
1>
09
1@
0=
#320000
b10001 %
1&
b10000 %
b0 %
0$
0!
0`
0]
0\
1B
0?
0:
1-
0@
19
1=
#325000
1!
1:
0-
#330000
1$
0!
1?
0:
1-
1F
09
0=
#335000
1!
1:
0-
1G
0>
1U
0i
0M
0K
0l
0h
04
0P
0F
1V
0T
15
1N
0H
07
0,
0Z
0U
0J
1+
0V
1R
1K
0+
1)
1,
#340000
b10 "
0#
b110 "
b10110 "
b10111 "
b1 %
b10001 %
0$
0!
0E
1`
1\
1q
1p
1o
1m
0?
0:
1-
1l
1h
1e
1d
1c
1a
#345000
1!
1:
0-
1g
1O
0G
1[
0R
1P
19
14
1M
0K
1Q
17
1=
1Z
0[
0N
1(
0)
0,
1R
1K
0(
1)
1,
#350000
1$
0!
1?
0:
1-
#355000
1!
1:
0-
0O
1>
09
1C
0=
#360000
b10101 "
1#
b10001 "
b1 "
b0 "
b10000 %
b0 %
0$
0!
1E
0`
0\
0q
0p
0o
0m
0?
0:
1-
0C
19
1=
#365000
1!
1:
0-
#370000
1$
0!
1?
0:
1-
1F
09
0=
#375000
1!
1:
0-
1G
0>
0a
0R
0M
0c
0d
0e
0l
0h
04
0P
0F
1N
0Z
0Q
07
0)
1[
1(
#380000
b10 %
b10000 "
b10001 "
b10010 %
0$
0!
1q
1m
1_
1\
0?
0:
1-
1e
1a
1k
1h
1H
1I
1Z
1U
1J
0[
1V
1R
0K
0(
1+
1)
0,
#385000
1!
1:
0-
1r
1O
0s
0G
1P
19
14
0Z
0U
0R
1M
1Q
16
1=
1Z
0V
0N
0)
1R
1V
0+
1)
1+
#390000
1$
0!
1?
0:
1-
#395000
1!
1:
0-
0O
1>
09
1F
0=
#400000
0$
0!
0?
0:
1-
0F
19
1=
#405000
1!
1:
0-
#410000
1$
0!
1?
0:
1-
1F
09
0=
#415000
1!
1:
0-
1G
0>
1W
1U
0M
1K
04
0P
0F
1X
1N
0Q
1,
1Y
1*
#420000
0$
0!
0?
0:
1-
#425000
1!
1:
0-
1O
1s
0G
1P
14
0W
0V
0K
0Z
0U
0R
1M
06
1Q
17
16
1Z
0X
0+
0,
0)
1R
1K
1V
1)
1,
1+
#430000
1$
0!
1?
0:
1-
#435000
1!
1:
0-
#440000
0$
0!
0?
0:
1-
#445000
1!
1:
0-
#450000
1$
0!
1?
0:
1-
#455000
1!
1:
0-
#460000
0$
0!
0?
0:
1-
#465000
1!
1:
0-
#470000
1$
0!
1?
0:
1-
#475000
1!
1:
0-
#480000
0$
0!
0?
0:
1-
#485000
1!
1:
0-
#490000
1$
0!
1?
0:
1-
#495000
1!
1:
0-
#500000
0$
0!
0?
0:
1-
#505000
1!
1:
0-
#510000
1$
0!
1?
0:
1-
#515000
1!
1:
0-
#520000
0$
0!
0?
0:
1-
#525000
1!
1:
0-
#530000
1$
0!
1?
0:
1-
#535000
1!
1:
0-
#540000
0$
0!
0?
0:
1-
#545000
1!
1:
0-
#550000
1$
0!
1?
0:
1-
#555000
1!
1:
0-
#560000
0$
0!
0?
0:
1-
#565000
1!
1:
0-
#570000
1$
0!
1?
0:
1-
#575000
1!
1:
0-
#580000
0$
0!
0?
0:
1-
#585000
1!
1:
0-
#590000
1$
0!
1?
0:
1-
#595000
1!
1:
0-
#600000
0$
0!
0?
0:
1-
#605000
1!
1:
0-
#610000
1$
0!
1?
0:
1-
#615000
1!
1:
0-
#620000
0$
0!
0?
0:
1-
#625000
1!
1:
0-
#630000
1$
0!
1?
0:
1-
#635000
1!
1:
0-
#640000
0$
0!
0?
0:
1-
#645000
1!
1:
0-
#650000
1$
0!
1?
0:
1-
#655000
1!
1:
0-
#660000
b10000 %
b0 %
0$
0!
0_
0\
0?
0:
1-
#665000
1!
1:
0-
#670000
b1 "
b0 "
1$
0!
0q
0m
1?
0:
1-
#675000
1!
1:
0-
#680000
0$
0!
0?
0:
1-
#685000
1!
1:
0-
#690000
1$
0!
1?
0:
1-
#695000
1!
1:
0-
#700000
0$
0!
0?
0:
1-
#705000
1!
1:
0-
#710000
1$
0!
1?
0:
1-
#715000
1!
1:
0-
#720000
0$
0!
0?
0:
1-
#725000
1!
1:
0-
#730000
1$
0!
1?
0:
1-
#735000
1!
1:
0-
#740000
0$
0!
0?
0:
1-
#745000
1!
1:
0-
#750000
1$
0!
1?
0:
1-
#755000
1!
1:
0-
#760000
0$
0!
0?
0:
1-
#765000
1!
1:
0-
#770000
1$
0!
1?
0:
1-
#775000
1!
1:
0-
#780000
0$
0!
0?
0:
1-
#785000
1!
1:
0-
#790000
1$
0!
1?
0:
1-
#795000
1!
1:
0-
#800000
0$
0!
0?
0:
1-
#805000
1!
1:
0-
#810000
1$
0!
1?
0:
1-
#815000
1!
1:
0-
#820000
0$
0!
0?
0:
1-
#825000
1!
1:
0-
#830000
1$
0!
1?
0:
1-
#835000
1!
1:
0-
#840000
0$
0!
0?
0:
1-
#845000
1!
1:
0-
#850000
1$
0!
1?
0:
1-
#855000
1!
1:
0-
#860000
0$
0!
0?
0:
1-
#865000
1!
1:
0-
#870000
1$
0!
1?
0:
1-
#875000
1!
1:
0-
#880000
0$
0!
0?
0:
1-
#885000
1!
1:
0-
#890000
1$
0!
1?
0:
1-
#895000
1!
1:
0-
#900000
0$
0!
0?
0:
1-
#905000
1!
1:
0-
#910000
1$
0!
1?
0:
1-
#915000
1!
1:
0-
#920000
0$
0!
0?
0:
1-
#925000
1!
1:
0-
#930000
1$
0!
1?
0:
1-
#935000
1!
1:
0-
#940000
0$
0!
0?
0:
1-
#945000
1!
1:
0-
#950000
1$
0!
1?
0:
1-
#955000
1!
1:
0-
#960000
0$
0!
0?
0:
1-
#965000
1!
1:
0-
#970000
1$
0!
1?
0:
1-
#975000
1!
1:
0-
#980000
0$
0!
0?
0:
1-
#985000
1!
1:
0-
#990000
b1000 %
1$
0!
1]
1?
0:
1-
#995000
1!
1:
0-
