Archive/Modulo13/simulation/qsim/modulo13.msim.vcd
$comment
	File created using the following command:
		vcd file modulo13.msim.vcd -direction
$end
$date
	Tue Oct 03 17:21:56 2017
$end
$version
	ModelSim Version 10.1d
$end
$timescale
	1ps
$end
$scope module g27_shift_left_3_vlg_vec_tst $end
$var reg 8 ! A [7:0] $end
$var wire 1 " S [7] $end
$var wire 1 # S [6] $end
$var wire 1 $ S [5] $end
$var wire 1 % S [4] $end
$var wire 1 & S [3] $end
$var wire 1 ' S [2] $end
$var wire 1 ( S [1] $end
$var wire 1 ) S [0] $end
$var wire 1 * sampler $end
$scope module i1 $end
$var wire 1 + gnd $end
$var wire 1 , vcc $end
$var wire 1 - unknown $end
$var tri1 1 . devclrn $end
$var tri1 1 / devpor $end
$var tri1 1 0 devoe $end
$var wire 1 1 A~combout [7] $end
$var wire 1 2 A~combout [6] $end
$var wire 1 3 A~combout [5] $end
$var wire 1 4 A~combout [4] $end
$var wire 1 5 A~combout [3] $end
$var wire 1 6 A~combout [2] $end
$var wire 1 7 A~combout [1] $end
$var wire 1 8 A~combout [0] $end
$upscope $end
$upscope $end
$enddefinitions $end
#0
$dumpvars
b0 !
0)
0(
0'
0&
0%
0$
0#
0"
x*
0+
1,
x-
1.
1/
10
08
07
06
05
04
z3
z2
z1
$end
#1000
b1 !
18
0*
1&
#2000
b11 !
b10 !
08
17
1*
0&
1%
#3000
b11 !
18
0*
1&
#4000
b111 !
b101 !
b100 !
08
07
16
1*
0&
0%
1$
#5000
b101 !
18
0*
1&
#6000
b111 !
b110 !
08
17
1*
0&
1%
#7000
b111 !
18
0*
1&
#8000
b1111 !
b1011 !
b1001 !
b1000 !
08
07
06
15
1*
0&
0%
0$
1#
#9000
b1001 !
18
0*
1&
#10000
b1011 !
b1010 !
08
17
1*
0&
1%
#11000
b1011 !
18
0*
1&
#12000
b1111 !
b1101 !
b1100 !
08
07
16
1*
0&
0%
1$
#13000
b1101 !
18
0*
1&
#14000
b1111 !
b1110 !
08
17
1*
0&
1%
#15000
b1111 !
18
0*
1&
#16000
b11111 !
b10111 !
b10011 !
b10001 !
b10000 !
08
07
06
05
14
1*
0&
0%
0$
0#
1"
#17000
b10001 !
18
0*
1&
#18000
b10011 !
b10010 !
08
17
1*
0&
1%
#19000
b10011 !
18
0*
1&
#20000
b10111 !
b10101 !
b10100 !
08
07
16
1*
0&
0%
1$
#21000
b10101 !
18
0*
1&
#22000
b10111 !
b10110 !
08
17
1*
0&
1%
#23000
b10111 !
18
0*
1&
#24000
b11111 !
b11011 !
b11001 !
b11000 !
08
07
06
15
1*
0&
0%
0$
1#
#25000
b11001 !
18
0*
1&
#26000
b11011 !
b11010 !
08
17
1*
0&
1%
#27000
b11011 !
18
0*
1&
#28000
b11111 !
b11101 !
b11100 !
08
07
16
1*
0&
0%
1$
#29000
b11101 !
18
0*
1&
#30000
b11111 !
b11110 !
08
17
1*
0&
1%
#31000
b11111 !
18
0*
1&
#32000
b111111 !
b101111 !
b100111 !
b100011 !
b100001 !
b100000 !
08
07
06
05
04
1*
0&
0%
0$
0#
0"
#33000
b100001 !
18
0*
1&
#34000
b100011 !
b100010 !
08
17
1*
0&
1%
#35000
b100011 !
18
0*
1&
#36000
b100111 !
b100101 !
b100100 !
08
07
16
1*
0&
0%
1$
#37000
b100101 !
18
0*
1&
#38000
b100111 !
b100110 !
08
17
1*
0&
1%
#39000
b100111 !
18
0*
1&
#40000
b101111 !
b101011 !
b101001 !
b101000 !
08
07
06
15
1*
0&
0%
0$
1#
#41000
b101001 !
18
0*
1&
#42000
b101011 !
b101010 !
08
17
1*
0&
1%
#43000
b101011 !
18
0*
1&
#44000
b101111 !
b101101 !
b101100 !
08
07
16
1*
0&
0%
1$
#45000
b101101 !
18
0*
1&
#46000
b101111 !
b101110 !
08
17
1*
0&
1%
#47000
b101111 !
18
0*
1&
#48000
b111111 !
b110111 !
b110011 !
b110001 !
b110000 !
08
07
06
05
14
1*
0&
0%
0$
0#
1"
#49000
b110001 !
18
0*
1&
#50000
b110011 !
b110010 !
08
17
1*
0&
1%
#51000
b110011 !
18
0*
1&
#52000
b110111 !
b110101 !
b110100 !
08
07
16
1*
0&
0%
1$
#53000
b110101 !
18
0*
1&
#54000
b110111 !
b110110 !
08
17
1*
0&
1%
#55000
b110111 !
18
0*
1&
#56000
b111111 !
b111011 !
b111001 !
b111000 !
08
07
06
15
1*
0&
0%
0$
1#
#57000
b111001 !
18
0*
1&
#58000
b111011 !
b111010 !
08
17
1*
0&
1%
#59000
b111011 !
18
0*
1&
#60000
b111111 !
b111101 !
b111100 !
08
07
16
1*
0&
0%
1$
#61000
b111101 !
18
0*
1&
#62000
b111111 !
b111110 !
08
17
1*
0&
1%
#63000
b111111 !
18
0*
1&
#64000
b1111111 !
b1011111 !
b1001111 !
b1000111 !
b1000011 !
b1000001 !
b1000000 !
08
07
06
05
04
1*
0&
0%
0$
0#
0"
#65000
b1000001 !
18
0*
1&
#66000
b1000011 !
b1000010 !
08
17
1*
0&
1%
#67000
b1000011 !
18
0*
1&
#68000
b1000111 !
b1000101 !
b1000100 !
08
07
16
1*
0&
0%
1$
#69000
b1000101 !
18
0*
1&
#70000
b1000111 !
b1000110 !
08
17
1*
0&
1%
#71000
b1000111 !
18
0*
1&
#72000
b1001111 !
b1001011 !
b1001001 !
b1001000 !
08
07
06
15
1*
0&
0%
0$
1#
#73000
b1001001 !
18
0*
1&
#74000
b1001011 !
b1001010 !
08
17
1*
0&
1%
#75000
b1001011 !
18
0*
1&
#76000
b1001111 !
b1001101 !
b1001100 !
08
07
16
1*
0&
0%
1$
#77000
b1001101 !
18
0*
1&
#78000
b1001111 !
b1001110 !
08
17
1*
0&
1%
#79000
b1001111 !
18
0*
1&
#80000
b1011111 !
b1010111 !
b1010011 !
b1010001 !
b1010000 !
08
07
06
05
14
1*
0&
0%
0$
0#
1"
#81000
b1010001 !
18
0*
1&
#82000
b1010011 !
b1010010 !
08
17
1*
0&
1%
#83000
b1010011 !
18
0*
1&
#84000
b1010111 !
b1010101 !
b1010100 !
08
07
16
1*
0&
0%
1$
#85000
b1010101 !
18
0*
1&
#86000
b1010111 !
b1010110 !
08
17
1*
0&
1%
#87000
b1010111 !
18
0*
1&
#88000
b1011111 !
b1011011 !
b1011001 !
b1011000 !
08
07
06
15
1*
0&
0%
0$
1#
#89000
b1011001 !
18
0*
1&
#90000
b1011011 !
b1011010 !
08
17
1*
0&
1%
#91000
b1011011 !
18
0*
1&
#92000
b1011111 !
b1011101 !
b1011100 !
08
07
16
1*
0&
0%
1$
#93000
b1011101 !
18
0*
1&
#94000
b1011111 !
b1011110 !
08
17
1*
0&
1%
#95000
b1011111 !
18
0*
1&
#96000
b1111111 !
b1101111 !
b1100111 !
b1100011 !
b1100001 !
b1100000 !
08
07
06
05
04
1*
0&
0%
0$
0#
0"
#97000
b1100001 !
18
0*
1&
#98000
b1100011 !
b1100010 !
08
17
1*
0&
1%
#99000
b1100011 !
18
0*
1&
#100000
b1100111 !
b1100101 !
b1100100 !
08
07
16
1*
0&
0%
1$
#101000
b1100101 !
18
0*
1&
#102000
b1100111 !
b1100110 !
08
17
1*
0&
1%
#103000
b1100111 !
18
0*
1&
#104000
b1101111 !
b1101011 !
b1101001 !
b1101000 !
08
07
06
15
1*
0&
0%
0$
1#
#105000
b1101001 !
18
0*
1&
#106000
b1101011 !
b1101010 !
08
17
1*
0&
1%
#107000
b1101011 !
18
0*
1&
#108000
b1101111 !
b1101101 !
b1101100 !
08
07
16
1*
0&
0%
1$
#109000
b1101101 !
18
0*
1&
#110000
b1101111 !
b1101110 !
08
17
1*
0&
1%
#111000
b1101111 !
18
0*
1&
#112000
b1111111 !
b1110111 !
b1110011 !
b1110001 !
b1110000 !
08
07
06
05
14
1*
0&
0%
0$
0#
1"
#113000
b1110001 !
18
0*
1&
#114000
b1110011 !
b1110010 !
08
17
1*
0&
1%
#115000
b1110011 !
18
0*
1&
#116000
b1110111 !
b1110101 !
b1110100 !
08
07
16
1*
0&
0%
1$
#117000
b1110101 !
18
0*
1&
#118000
b1110111 !
b1110110 !
08
17
1*
0&
1%
#119000
b1110111 !
18
0*
1&
#120000
b1111111 !
b1111011 !
b1111001 !
b1111000 !
08
07
06
15
1*
0&
0%
0$
1#
#121000
b1111001 !
18
0*
1&
#122000
b1111011 !
b1111010 !
08
17
1*
0&
1%
#123000
b1111011 !
18
0*
1&
#124000
b1111111 !
b1111101 !
b1111100 !
08
07
16
1*
0&
0%
1$
#125000
b1111101 !
18
0*
1&
#126000
b1111111 !
b1111110 !
08
17
1*
0&
1%
#127000
b1111111 !
18
0*
1&
#128000
b11111111 !
b10111111 !
b10011111 !
b10001111 !
b10000111 !
b10000011 !
b10000001 !
b10000000 !
08
07
06
05
04
1*
0&
0%
0$
0#
0"
#129000
b10000001 !
18
0*
1&
#130000
b10000011 !
b10000010 !
08
17
1*
0&
1%
#131000
b10000011 !
18
0*
1&
#132000
b10000111 !
b10000101 !
b10000100 !
08
07
16
1*
0&
0%
1$
#133000
b10000101 !
18
0*
1&
#134000
b10000111 !
b10000110 !
08
17
1*
0&
1%
#135000
b10000111 !
18
0*
1&
#136000
b10001111 !
b10001011 !
b10001001 !
b10001000 !
08
07
06
15
1*
0&
0%
0$
1#
#137000
b10001001 !
18
0*
1&
#138000
b10001011 !
b10001010 !
08
17
1*
0&
1%
#139000
b10001011 !
18
0*
1&
#140000
b10001111 !
b10001101 !
b10001100 !
08
07
16
1*
0&
0%
1$
#141000
b10001101 !
18
0*
1&
#142000
b10001111 !
b10001110 !
08
17
1*
0&
1%
#143000
b10001111 !
18
0*
1&
#144000
b10011111 !
b10010111 !
b10010011 !
b10010001 !
b10010000 !
08
07
06
05
14
1*
0&
0%
0$
0#
1"
#145000
b10010001 !
18
0*
1&
#146000
b10010011 !
b10010010 !
08
17
1*
0&
1%
#147000
b10010011 !
18
0*
1&
#148000
b10010111 !
b10010101 !
b10010100 !
08
07
16
1*
0&
0%
1$
#149000
b10010101 !
18
0*
1&
#150000
b10010111 !
b10010110 !
08
17
1*
0&
1%
#151000
b10010111 !
18
0*
1&
#152000
b10011111 !
b10011011 !
b10011001 !
b10011000 !
08
07
06
15
1*
0&
0%
0$
1#
#153000
b10011001 !
18
0*
1&
#154000
b10011011 !
b10011010 !
08
17
1*
0&
1%
#155000
b10011011 !
18
0*
1&
#156000
b10011111 !
b10011101 !
b10011100 !
08
07
16
1*
0&
0%
1$
#157000
b10011101 !
18
0*
1&
#158000
b10011111 !
b10011110 !
08
17
1*
0&
1%
#159000
b10011111 !
18
0*
1&
#160000
b10111111 !
b10101111 !
b10100111 !
b10100011 !
b10100001 !
b10100000 !
08
07
06
05
04
1*
0&
0%
0$
0#
0"
#161000
b10100001 !
18
0*
1&
#162000
b10100011 !
b10100010 !
08
17
1*
0&
1%
#163000
b10100011 !
18
0*
1&
#164000
b10100111 !
b10100101 !
b10100100 !
08
07
16
1*
0&
0%
1$
#165000
b10100101 !
18
0*
1&
#166000
b10100111 !
b10100110 !
08
17
1*
0&
1%
#167000
b10100111 !
18
0*
1&
#168000
b10101111 !
b10101011 !
b10101001 !
b10101000 !
08
07
06
15
1*
0&
0%
0$
1#
#169000
b10101001 !
18
0*
1&
#170000
b10101011 !
b10101010 !
08
17
1*
0&
1%
#171000
b10101011 !
18
0*
1&
#172000
b10101111 !
b10101101 !
b10101100 !
08
07
16
1*
0&
0%
1$
#173000
b10101101 !
18
0*
1&
#174000
b10101111 !
b10101110 !
08
17
1*
0&
1%
#175000
b10101111 !
18
0*
1&
#176000
b10111111 !
b10110111 !
b10110011 !
b10110001 !
b10110000 !
08
07
06
05
14
1*
0&
0%
0$
0#
1"
#177000
b10110001 !
18
0*
1&
#178000
b10110011 !
b10110010 !
08
17
1*
0&
1%
#179000
b10110011 !
18
0*
1&
#180000
b10110111 !
b10110101 !
b10110100 !
08
07
16
1*
0&
0%
1$
#181000
b10110101 !
18
0*
1&
#182000
b10110111 !
b10110110 !
08
17
1*
0&
1%
#183000
b10110111 !
18
0*
1&
#184000
b10111111 !
b10111011 !
b10111001 !
b10111000 !
08
07
06
15
1*
0&
0%
0$
1#
#185000
b10111001 !
18
0*
1&
#186000
b10111011 !
b10111010 !
08
17
1*
0&
1%
#187000
b10111011 !
18
0*
1&
#188000
b10111111 !
b10111101 !
b10111100 !
08
07
16
1*
0&
0%
1$
#189000
b10111101 !
18
0*
1&
#190000
b10111111 !
b10111110 !
08
17
1*
0&
1%
#191000
b10111111 !
18
0*
1&
#192000
b11111111 !
b11011111 !
b11001111 !
b11000111 !
b11000011 !
b11000001 !
b11000000 !
08
07
06
05
04
1*
0&
0%
0$
0#
0"
#193000
b11000001 !
18
0*
1&
#194000
b11000011 !
b11000010 !
08
17
1*
0&
1%
#195000
b11000011 !
18
0*
1&
#196000
b11000111 !
b11000101 !
b11000100 !
08
07
16
1*
0&
0%
1$
#197000
b11000101 !
18
0*
1&
#198000
b11000111 !
b11000110 !
08
17
1*
0&
1%
#199000
b11000111 !
18
0*
1&
#200000
b11001111 !
b11001011 !
b11001001 !
b11001000 !
08
07
06
15
1*
0&
0%
0$
1#
#201000
b11001001 !
18
0*
1&
#202000
b11001011 !
b11001010 !
08
17
1*
0&
1%
#203000
b11001011 !
18
0*
1&
#204000
b11001111 !
b11001101 !
b11001100 !
08
07
16
1*
0&
0%
1$
#205000
b11001101 !
18
0*
1&
#206000
b11001111 !
b11001110 !
08
17
1*
0&
1%
#207000
b11001111 !
18
0*
1&
#208000
b11011111 !
b11010111 !
b11010011 !
b11010001 !
b11010000 !
08
07
06
05
14
1*
0&
0%
0$
0#
1"
#209000
b11010001 !
18
0*
1&
#210000
b11010011 !
b11010010 !
08
17
1*
0&
1%
#211000
b11010011 !
18
0*
1&
#212000
b11010111 !
b11010101 !
b11010100 !
08
07
16
1*
0&
0%
1$
#213000
b11010101 !
18
0*
1&
#214000
b11010111 !
b11010110 !
08
17
1*
0&
1%
#215000
b11010111 !
18
0*
1&
#216000
b11011111 !
b11011011 !
b11011001 !
b11011000 !
08
07
06
15
1*
0&
0%
0$
1#
#217000
b11011001 !
18
0*
1&
#218000
b11011011 !
b11011010 !
08
17
1*
0&
1%
#219000
b11011011 !
18
0*
1&
#220000
b11011111 !
b11011101 !
b11011100 !
08
07
16
1*
0&
0%
1$
#221000
b11011101 !
18
0*
1&
#222000
b11011111 !
b11011110 !
08
17
1*
0&
1%
#223000
b11011111 !
18
0*
1&
#224000
b11111111 !
b11101111 !
b11100111 !
b11100011 !
b11100001 !
b11100000 !
08
07
06
05
04
1*
0&
0%
0$
0#
0"
#225000
b11100001 !
18
0*
1&
#226000
b11100011 !
b11100010 !
08
17
1*
0&
1%
#227000
b11100011 !
18
0*
1&
#228000
b11100111 !
b11100101 !
b11100100 !
08
07
16
1*
0&
0%
1$
#229000
b11100101 !
18
0*
1&
#230000
b11100111 !
b11100110 !
08
17
1*
0&
1%
#231000
b11100111 !
18
0*
1&
#232000
b11101111 !
b11101011 !
b11101001 !
b11101000 !
08
07
06
15
1*
0&
0%
0$
1#
#233000
b11101001 !
18
0*
1&
#234000
b11101011 !
b11101010 !
08
17
1*
0&
1%
#235000
b11101011 !
18
0*
1&
#236000
b11101111 !
b11101101 !
b11101100 !
08
07
16
1*
0&
0%
1$
#237000
b11101101 !
18
0*
1&
#238000
b11101111 !
b11101110 !
08
17
1*
0&
1%
#239000
b11101111 !
18
0*
1&
#240000
b11111111 !
b11110111 !
b11110011 !
b11110001 !
b11110000 !
08
07
06
05
14
1*
0&
0%
0$
0#
1"
#241000
b11110001 !
18
0*
1&
#242000
b11110011 !
b11110010 !
08
17
1*
0&
1%
#243000
b11110011 !
18
0*
1&
#244000
b11110111 !
b11110101 !
b11110100 !
08
07
16
1*
0&
0%
1$
#245000
b11110101 !
18
0*
1&
#246000
b11110111 !
b11110110 !
08
17
1*
0&
1%
#247000
b11110111 !
18
0*
1&
#248000
b11111111 !
b11111011 !
b11111001 !
b11111000 !
08
07
06
15
1*
0&
0%
0$
1#
#249000
b11111001 !
18
0*
1&
#250000
b11111011 !
b11111010 !
08
17
1*
0&
1%
#251000
b11111011 !
18
0*
1&
#252000
b11111111 !
b11111101 !
b11111100 !
08
07
16
1*
0&
0%
1$
#253000
b11111101 !
18
0*
1&
#254000
b11111111 !
b11111110 !
08
17
1*
0&
1%
#255000
b11111111 !
18
0*
1&
