Modulo 13/simulation/qsim/g27_lab1.msim.vcd
$comment
	File created using the following command:
		vcd file g27_lab1.msim.vcd -direction
$end
$date
	Tue Oct 03 17:57:33 2017
$end
$version
	ModelSim Version 10.1d
$end
$timescale
	1ps
$end
$scope module g27_Modulo_13_vlg_vec_tst $end
$var reg 6 ! IN [5:0] $end
$var wire 1 " O [3] $end
$var wire 1 # O [2] $end
$var wire 1 $ O [1] $end
$var wire 1 % O [0] $end
$var wire 1 & sampler $end
$scope module i1 $end
$var wire 1 ' gnd $end
$var wire 1 ( vcc $end
$var wire 1 ) unknown $end
$var tri1 1 * devclrn $end
$var tri1 1 + devpor $end
$var tri1 1 , devoe $end
$var wire 1 - inst2|inst5|inst4~0_combout $end
$var wire 1 . inst2|inst5|inst4~1_combout $end
$var wire 1 / inst2|inst5|inst4~2_combout $end
$var wire 1 0 inst2|inst6|inst1~combout $end
$var wire 1 1 inst2|inst7|inst1~0_combout $end
$var wire 1 2 inst8|inst3|inst4~0_combout $end
$var wire 1 3 inst7|inst4|inst1~6_combout $end
$var wire 1 4 inst8|inst4|inst4~combout $end
$var wire 1 5 inst7|inst3|inst4~0_combout $end
$var wire 1 6 inst7|inst5|inst1~combout $end
$var wire 1 7 inst7|inst5|inst4~0_combout $end
$var wire 1 8 inst8|inst6|inst3~combout $end
$var wire 1 9 inst8|inst6|inst1~combout $end
$var wire 1 : inst8|inst5|inst1~combout $end
$var wire 1 ; inst8|inst4|inst1~combout $end
$var wire 1 < IN~combout [5] $end
$var wire 1 = IN~combout [4] $end
$var wire 1 > IN~combout [3] $end
$var wire 1 ? IN~combout [2] $end
$var wire 1 @ IN~combout [1] $end
$var wire 1 A IN~combout [0] $end
$upscope $end
$upscope $end
$enddefinitions $end
#0
$dumpvars
b0 !
0%
0$
0#
0"
x&
0'
1(
x)
1*
1+
1,
0-
0.
0/
00
01
12
03
14
05
06
07
18
19
1:
1;
0A
0@
0?
0>
0=
0<
$end
#1000
b1 !
1A
0&
#2000
b11 !
b10 !
0A
1@
1&
#3000
b11 !
1A
0&
#4000
b111 !
b101 !
b100 !
0A
0@
1?
1&
#5000
b101 !
1A
0&
#6000
b111 !
b110 !
0A
1@
1&
#7000
b111 !
1A
0&
#8000
b1111 !
b1011 !
b1001 !
b1000 !
0A
0@
0?
1>
1&
1-
#9000
b1001 !
1A
0&
#10000
b1011 !
b1010 !
0A
1@
1&
1.
0-
#11000
b1011 !
1A
0&
#12000
b1111 !
b1101 !
b1100 !
0A
0@
1?
1&
1/
0.
1-
10
0/
15
13
00
0;
0:
04
05
03
09
08
1;
1:
14
1%
1$
19
18
1#
1"
0%
0$
0#
0"
#13000
b1101 !
1A
0&
1/
10
15
13
0;
0:
04
09
08
1%
1$
1#
1"
#14000
b1111 !
b1110 !
0A
1@
1&
0/
1.
0-
00
1/
05
03
10
1;
1:
14
15
13
19
18
0;
0:
04
0%
0$
09
08
0#
0"
1%
1$
1#
1"
#15000
b1111 !
1A
0&
#16000
b11111 !
b10111 !
b10011 !
b10001 !
b10000 !
0A
0@
0?
0>
1=
1&
0/
0.
05
03
02
1:
16
14
11
00
06
01
10
1;
04
13
0$
0;
03
14
0%
0:
04
19
18
1%
09
08
1$
0#
0"
1#
1"
#17000
b10001 !
1A
0&
#18000
b10011 !
b10010 !
0A
1@
1&
#19000
b10011 !
1A
0&
#20000
b10111 !
b10101 !
b10100 !
0A
0@
1?
1&
15
13
12
16
1:
14
0:
0$
1$
#21000
b10101 !
1A
0&
#22000
b10111 !
b10110 !
0A
1@
1&
#23000
b10111 !
1A
0&
#24000
b11111 !
b11011 !
b11001 !
b11000 !
0A
0@
0?
1>
1&
1.
#25000
b11001 !
1A
0&
#26000
b11011 !
b11010 !
0A
1@
1&
1-
1/
11
00
1;
03
0%
#27000
b11011 !
1A
0&
#28000
b11111 !
b11101 !
b11100 !
0A
0@
1?
1&
0-
#29000
b11101 !
1A
0&
#30000
b11111 !
b11110 !
0A
1@
1&
1-
#31000
b11111 !
1A
0&
#32000
b111111 !
b101111 !
b100111 !
b100011 !
b100001 !
b100000 !
0A
0@
0?
0>
0=
1<
1&
0.
0-
05
13
02
17
10
19
18
0/
0;
1:
04
09
08
03
0#
0"
07
06
00
1%
0$
1#
1"
0:
1;
13
1$
0%
#33000
b100001 !
1A
0&
#34000
b100011 !
b100010 !
0A
1@
1&
1-
#35000
b100011 !
1A
0&
#36000
b100111 !
b100101 !
b100100 !
0A
0@
1?
1&
0-
#37000
b100101 !
1A
0&
#38000
b100111 !
b100110 !
0A
1@
1&
1-
#39000
b100111 !
1A
0&
1/
17
16
10
1:
0;
03
0$
1%
#40000
b101111 !
b101011 !
b101001 !
b101000 !
0A
0@
0?
1>
1&
0/
1.
07
06
00
1/
0:
1;
15
12
17
16
10
0;
14
05
02
1$
0%
1:
04
1%
0$
#41000
b101001 !
1A
0&
#42000
b101011 !
b101010 !
0A
1@
1&
#43000
b101011 !
1A
0&
#44000
b101111 !
b101101 !
b101100 !
0A
0@
1?
1&
15
13
12
#45000
b101101 !
1A
0&
#46000
b101111 !
b101110 !
0A
1@
1&
#47000
b101111 !
1A
0&
#48000
b111111 !
b110111 !
b110011 !
b110001 !
b110000 !
0A
0@
0?
0>
1=
1&
0-
05
03
02
0:
14
01
00
0/
07
06
1:
04
12
1$
17
16
11
10
1;
14
0$
0:
02
0%
0;
1:
04
1$
1%
0$
#49000
b110001 !
1A
0&
#50000
b110011 !
b110010 !
0A
1@
1&
#51000
b110011 !
1A
0&
#52000
b110111 !
b110101 !
b110100 !
0A
0@
1?
1&
1/
07
06
01
00
0:
12
1;
1:
14
1$
19
18
0%
0$
0#
0"
#53000
b110101 !
1A
0&
#54000
b110111 !
b110110 !
0A
1@
1&
#55000
b110111 !
1A
0&
#56000
b111111 !
b111011 !
b111001 !
b111000 !
0A
0@
0?
1>
1&
0/
1-
17
16
11
10
1/
09
08
0:
02
07
06
01
00
0;
04
19
18
12
1#
1"
1$
09
08
1;
1:
14
1%
0#
0"
19
18
1#
1"
0%
0$
0#
0"
#57000
b111001 !
1A
0&
#58000
b111011 !
b111010 !
0A
1@
1&
#59000
b111011 !
1A
0&
#60000
b111111 !
b111101 !
b111100 !
0A
0@
1?
1&
#61000
b111101 !
1A
0&
#62000
b111111 !
b111110 !
0A
1@
1&
#63000
b111111 !
1A
0&
