Modulo 13/simulation/qsim/modulo13.msim.vcd
$comment
	File created using the following command:
		vcd file modulo13.msim.vcd -direction
$end
$date
	Tue Oct 03 20:38:56 2017
$end
$version
	ModelSim Version 10.1d
$end
$timescale
	1ps
$end
$scope module testing2_vlg_vec_tst $end
$var reg 6 ! IN [5:0] $end
$var wire 1 " S [7] $end
$var wire 1 # S [6] $end
$var wire 1 $ S [5] $end
$var wire 1 % S [4] $end
$var wire 1 & S [3] $end
$var wire 1 ' S [2] $end
$var wire 1 ( S [1] $end
$var wire 1 ) S [0] $end
$var wire 1 * sampler $end
$scope module i1 $end
$var wire 1 + gnd $end
$var wire 1 , vcc $end
$var wire 1 - unknown $end
$var tri1 1 . devclrn $end
$var tri1 1 / devpor $end
$var tri1 1 0 devoe $end
$var wire 1 1 inst2|inst4|inst4~1_combout $end
$var wire 1 2 inst2|inst5|inst4~0_combout $end
$var wire 1 3 inst2|inst7|inst1~combout $end
$var wire 1 4 inst2|inst6|inst1~combout $end
$var wire 1 5 inst2|inst4|inst4~0_combout $end
$var wire 1 6 inst2|inst5|inst1~combout $end
$var wire 1 7 inst2|inst3|inst4~0_combout $end
$var wire 1 8 inst2|inst4|inst1~0_combout $end
$var wire 1 9 inst2|inst3|inst1~0_combout $end
$var wire 1 : inst2|inst2|inst~combout $end
$var wire 1 ; IN~combout [5] $end
$var wire 1 < IN~combout [4] $end
$var wire 1 = IN~combout [3] $end
$var wire 1 > IN~combout [2] $end
$var wire 1 ? IN~combout [1] $end
$var wire 1 @ IN~combout [0] $end
$upscope $end
$upscope $end
$enddefinitions $end
#0
$dumpvars
b0 !
0)
0(
0'
0&
0%
0$
0#
0"
x*
0+
1,
x-
1.
1/
10
01
02
03
04
05
06
07
08
09
0:
0@
0?
0>
0=
0<
0;
$end
#1000
b1 !
1@
0*
1:
1)
1'
#2000
b11 !
b10 !
0@
1?
1*
0:
19
0)
1(
0'
1&
#3000
b11 !
1@
0*
1:
1)
1'
#4000
b111 !
b101 !
b100 !
0@
0?
1>
1*
09
18
0)
0(
0&
1%
#5000
b101 !
1@
0*
0:
19
1)
0'
1&
#6000
b111 !
b110 !
0@
1?
1*
1:
0)
1(
1'
#7000
b111 !
1@
0*
0:
09
17
1)
08
11
0'
0&
16
0%
1$
#8000
b1111 !
b1011 !
b1001 !
b1000 !
0@
0?
0>
1=
1*
19
07
18
01
06
12
0)
0(
08
16
02
14
1&
1%
0$
04
0%
1$
1#
0#
#9000
b1001 !
1@
0*
1:
1)
1'
#10000
b1011 !
b1010 !
0@
1?
1*
0:
09
17
0)
1(
18
0'
0&
1%
#11000
b1011 !
1@
0*
1:
1)
1'
#12000
b1111 !
b1101 !
b1100 !
0@
0?
1>
1*
19
07
08
11
0)
0(
18
01
06
12
1&
0%
16
02
14
1%
0$
04
1$
1#
0#
#13000
b1101 !
1@
0*
0:
09
17
1)
08
11
0'
0&
06
12
0%
14
0$
1#
#14000
b1111 !
b1110 !
0@
1?
1*
1:
0)
1(
1'
#15000
b1111 !
1@
0*
0:
19
1)
0'
1&
#16000
b11111 !
b10111 !
b10011 !
b10001 !
b10000 !
0@
0?
0>
0=
1<
1*
09
07
16
02
04
13
0)
0(
18
01
14
03
0&
1$
0#
1"
06
1%
1#
0"
0$
#17000
b10001 !
1@
0*
1:
1)
1'
#18000
b10011 !
b10010 !
0@
1?
1*
0:
19
0)
1(
0'
1&
#19000
b10011 !
1@
0*
1:
1)
1'
#20000
b10111 !
b10101 !
b10100 !
0@
0?
1>
1*
09
08
15
0)
0(
16
0&
0%
1$
#21000
b10101 !
1@
0*
0:
19
1)
0'
1&
#22000
b10111 !
b10110 !
0@
1?
1*
1:
0)
1(
1'
#23000
b10111 !
1@
0*
0:
09
17
1)
18
11
0'
0&
1%
#24000
b11111 !
b11011 !
b11001 !
b11000 !
0@
0?
0>
1=
1*
19
07
08
05
06
12
0)
0(
18
01
04
13
1&
0%
0$
16
02
1%
0#
1"
14
03
1$
1#
0"
#25000
b11001 !
1@
0*
1:
1)
1'
#26000
b11011 !
b11010 !
0@
1?
1*
0:
09
17
0)
1(
08
11
0'
0&
06
12
0%
04
13
0$
0#
1"
#27000
b11011 !
1@
0*
1:
1)
1'
#28000
b11111 !
b11101 !
b11100 !
0@
0?
1>
1*
19
07
18
15
0)
0(
08
01
1&
1%
0%
#29000
b11101 !
1@
0*
0:
09
17
1)
18
11
0'
0&
1%
#30000
b11111 !
b11110 !
0@
1?
1*
1:
0)
1(
1'
#31000
b11111 !
1@
0*
0:
19
1)
0'
1&
#32000
b111111 !
b101111 !
b100111 !
b100011 !
b100001 !
b100000 !
0@
0?
0>
0=
0<
1;
1*
09
07
05
01
14
0)
0(
08
16
02
0&
1#
04
0%
1$
0#
#33000
b100001 !
1@
0*
1:
1)
1'
#34000
b100011 !
b100010 !
0@
1?
1*
0:
19
0)
1(
0'
1&
#35000
b100011 !
1@
0*
1:
1)
1'
#36000
b100111 !
b100101 !
b100100 !
0@
0?
1>
1*
09
18
0)
0(
0&
1%
#37000
b100101 !
1@
0*
0:
19
1)
0'
1&
#38000
b100111 !
b100110 !
0@
1?
1*
1:
0)
1(
1'
#39000
b100111 !
1@
0*
0:
09
17
1)
08
11
0'
0&
06
12
0%
14
0$
1#
#40000
b101111 !
b101011 !
b101001 !
b101000 !
0@
0?
0>
1=
1*
19
07
18
01
16
0)
0(
08
06
1&
1%
1$
0%
0$
#41000
b101001 !
1@
0*
1:
1)
1'
#42000
b101011 !
b101010 !
0@
1?
1*
0:
09
17
0)
1(
18
0'
0&
1%
#43000
b101011 !
1@
0*
1:
1)
1'
#44000
b101111 !
b101101 !
b101100 !
0@
0?
1>
1*
19
07
08
11
0)
0(
18
01
16
1&
0%
06
1%
1$
0$
#45000
b101101 !
1@
0*
0:
09
17
1)
08
11
0'
0&
16
0%
1$
#46000
b101111 !
b101110 !
0@
1?
1*
1:
0)
1(
1'
#47000
b101111 !
1@
0*
0:
19
1)
0'
1&
#48000
b111111 !
b110111 !
b110011 !
b110001 !
b110000 !
0@
0?
0>
0=
1<
1*
09
07
06
04
03
0)
0(
18
01
0&
0$
0#
0"
16
02
1%
14
13
1$
1#
1"
#49000
b110001 !
1@
0*
1:
1)
1'
#50000
b110011 !
b110010 !
0@
1?
1*
0:
19
0)
1(
0'
1&
#51000
b110011 !
1@
0*
1:
1)
1'
#52000
b110111 !
b110101 !
b110100 !
0@
0?
1>
1*
09
08
15
0)
0(
06
12
0&
0%
04
03
0$
0#
0"
#53000
b110101 !
1@
0*
0:
19
1)
0'
1&
#54000
b110111 !
b110110 !
0@
1?
1*
1:
0)
1(
1'
#55000
b110111 !
1@
0*
0:
09
17
1)
18
11
0'
0&
1%
#56000
b111111 !
b111011 !
b111001 !
b111000 !
0@
0?
0>
1=
1*
19
07
08
05
16
0)
0(
18
01
1&
0%
1$
06
1%
0$
#57000
b111001 !
1@
0*
1:
1)
1'
#58000
b111011 !
b111010 !
0@
1?
1*
0:
09
17
0)
1(
08
11
0'
0&
16
0%
1$
#59000
b111011 !
1@
0*
1:
1)
1'
#60000
b111111 !
b111101 !
b111100 !
0@
0?
1>
1*
19
07
18
15
0)
0(
08
01
1&
1%
0%
#61000
b111101 !
1@
0*
0:
09
17
1)
18
11
0'
0&
1%
#62000
b111111 !
b111110 !
0@
1?
1*
1:
0)
1(
1'
#63000
b111111 !
1@
0*
0:
19
1)
0'
1&
#64000
b11111 !
b1111 !
b111 !
b11 !
b1 !
b0 !
0@
0?
0>
0=
0<
0;
1*
09
07
05
01
02
14
0)
0(
08
06
04
0&
1#
0%
0$
0#
#65000
b1 !
1@
0*
1:
1)
1'
#66000
b11 !
b10 !
0@
1?
1*
0:
19
0)
1(
0'
1&
#67000
b11 !
1@
0*
1:
1)
1'
#68000
b111 !
b101 !
b100 !
0@
0?
1>
1*
09
18
0)
0(
0&
1%
#69000
b101 !
1@
0*
0:
19
1)
0'
1&
#70000
b111 !
b110 !
0@
1?
1*
1:
0)
1(
1'
#71000
b111 !
1@
0*
0:
09
17
1)
08
11
0'
0&
16
0%
1$
#72000
b1111 !
b1011 !
b1001 !
b1000 !
0@
0?
0>
1=
1*
19
07
18
01
06
12
0)
0(
08
16
02
14
1&
1%
0$
04
0%
1$
1#
0#
#73000
b1001 !
1@
0*
1:
1)
1'
#74000
b1011 !
b1010 !
0@
1?
1*
0:
09
17
0)
1(
18
0'
0&
1%
#75000
b1011 !
1@
0*
1:
1)
1'
#76000
b1111 !
b1101 !
b1100 !
0@
0?
1>
1*
19
07
08
11
0)
0(
18
01
06
12
1&
0%
16
02
14
1%
0$
04
1$
1#
0#
#77000
b1101 !
1@
0*
0:
09
17
1)
08
11
0'
0&
06
12
0%
14
0$
1#
#78000
b1111 !
b1110 !
0@
1?
1*
1:
0)
1(
1'
#79000
b1111 !
1@
0*
0:
19
1)
0'
1&
#80000
b11111 !
b10111 !
b10011 !
b10001 !
b10000 !
0@
0?
0>
0=
1<
1*
09
07
16
02
04
13
0)
0(
18
01
14
03
0&
1$
0#
1"
06
1%
1#
0"
0$
#81000
b10001 !
1@
0*
1:
1)
1'
#82000
b10011 !
b10010 !
0@
1?
1*
0:
19
0)
1(
0'
1&
#83000
b10011 !
1@
0*
1:
1)
1'
#84000
b10111 !
b10101 !
b10100 !
0@
0?
1>
1*
09
08
15
0)
0(
16
0&
0%
1$
#85000
b10101 !
1@
0*
0:
19
1)
0'
1&
#86000
b10111 !
b10110 !
0@
1?
1*
1:
0)
1(
1'
#87000
b10111 !
1@
0*
0:
09
17
1)
18
11
0'
0&
1%
#88000
b11111 !
b11011 !
b11001 !
b11000 !
0@
0?
0>
1=
1*
19
07
08
05
06
12
0)
0(
18
01
04
13
1&
0%
0$
16
02
1%
0#
1"
14
03
1$
1#
0"
#89000
b11001 !
1@
0*
1:
1)
1'
#90000
b11011 !
b11010 !
0@
1?
1*
0:
09
17
0)
1(
08
11
0'
0&
06
12
0%
04
13
0$
0#
1"
#91000
b11011 !
1@
0*
1:
1)
1'
#92000
b11111 !
b11101 !
b11100 !
0@
0?
1>
1*
19
07
18
15
0)
0(
08
01
1&
1%
0%
#93000
b11101 !
1@
0*
0:
09
17
1)
18
11
0'
0&
1%
#94000
b11111 !
b11110 !
0@
1?
1*
1:
0)
1(
1'
#95000
b11111 !
1@
0*
0:
19
1)
0'
1&
#96000
b111111 !
b101111 !
b100111 !
b100011 !
b100001 !
b100000 !
0@
0?
0>
0=
0<
1;
1*
09
07
05
01
14
0)
0(
08
16
02
0&
1#
04
0%
1$
0#
#97000
b100001 !
1@
0*
1:
1)
1'
#98000
b100011 !
b100010 !
0@
1?
1*
0:
19
0)
1(
0'
1&
#99000
b100011 !
1@
0*
1:
1)
1'
#100000
b100111 !
b100101 !
b100100 !
0@
0?
1>
1*
09
18
0)
0(
0&
1%
#101000
b100101 !
1@
0*
0:
19
1)
0'
1&
#102000
b100111 !
b100110 !
0@
1?
1*
1:
0)
1(
1'
#103000
b100111 !
1@
0*
0:
09
17
1)
08
11
0'
0&
06
12
0%
14
0$
1#
#104000
b101111 !
b101011 !
b101001 !
b101000 !
0@
0?
0>
1=
1*
19
07
18
01
16
0)
0(
08
06
1&
1%
1$
0%
0$
#105000
b101001 !
1@
0*
1:
1)
1'
#106000
b101011 !
b101010 !
0@
1?
1*
0:
09
17
0)
1(
18
0'
0&
1%
#107000
b101011 !
1@
0*
1:
1)
1'
#108000
b101111 !
b101101 !
b101100 !
0@
0?
1>
1*
19
07
08
11
0)
0(
18
01
16
1&
0%
06
1%
1$
0$
#109000
b101101 !
1@
0*
0:
09
17
1)
08
11
0'
0&
16
0%
1$
#110000
b101111 !
b101110 !
0@
1?
1*
1:
0)
1(
1'
#111000
b101111 !
1@
0*
0:
19
1)
0'
1&
#112000
b111111 !
b110111 !
b110011 !
b110001 !
b110000 !
0@
0?
0>
0=
1<
1*
09
07
06
04
03
0)
0(
18
01
0&
0$
0#
0"
16
02
1%
14
13
1$
1#
1"
#113000
b110001 !
1@
0*
1:
1)
1'
#114000
b110011 !
b110010 !
0@
1?
1*
0:
19
0)
1(
0'
1&
#115000
b110011 !
1@
0*
1:
1)
1'
#116000
b110111 !
b110101 !
b110100 !
0@
0?
1>
1*
09
08
15
0)
0(
06
12
0&
0%
04
03
0$
0#
0"
#117000
b110101 !
1@
0*
0:
19
1)
0'
1&
#118000
b110111 !
b110110 !
0@
1?
1*
1:
0)
1(
1'
#119000
b110111 !
1@
0*
0:
09
17
1)
18
11
0'
0&
1%
#120000
b111111 !
b111011 !
b111001 !
b111000 !
0@
0?
0>
1=
1*
19
07
08
05
16
0)
0(
18
01
1&
0%
1$
06
1%
0$
#121000
b111001 !
1@
0*
1:
1)
1'
#122000
b111011 !
b111010 !
0@
1?
1*
0:
09
17
0)
1(
08
11
0'
0&
16
0%
1$
#123000
b111011 !
1@
0*
1:
1)
1'
#124000
b111111 !
b111101 !
b111100 !
0@
0?
1>
1*
19
07
18
15
0)
0(
08
01
1&
1%
0%
#125000
b111101 !
1@
0*
0:
09
17
1)
18
11
0'
0&
1%
#126000
b111111 !
b111110 !
0@
1?
1*
1:
0)
1(
1'
#127000
b111111 !
1@
0*
0:
19
1)
0'
1&
#128000
b11111 !
b1111 !
b111 !
b11 !
b1 !
b0 !
0@
0?
0>
0=
0<
0;
1*
09
07
05
01
02
14
0)
0(
08
06
04
0&
1#
0%
0$
0#
#129000
b1 !
1@
0*
1:
1)
1'
#130000
b11 !
b10 !
0@
1?
1*
0:
19
0)
1(
0'
1&
#131000
b11 !
1@
0*
1:
1)
1'
#132000
b111 !
b101 !
b100 !
0@
0?
1>
1*
09
18
0)
0(
0&
1%
#133000
b101 !
1@
0*
0:
19
1)
0'
1&
#134000
b111 !
b110 !
0@
1?
1*
1:
0)
1(
1'
#135000
b111 !
1@
0*
0:
09
17
1)
08
11
0'
0&
16
0%
1$
#136000
b1111 !
b1011 !
b1001 !
b1000 !
0@
0?
0>
1=
1*
19
07
18
01
06
12
0)
0(
08
16
02
14
1&
1%
0$
04
0%
1$
1#
0#
#137000
b1001 !
1@
0*
1:
1)
1'
#138000
b1011 !
b1010 !
0@
1?
1*
0:
09
17
0)
1(
18
0'
0&
1%
#139000
b1011 !
1@
0*
1:
1)
1'
#140000
b1111 !
b1101 !
b1100 !
0@
0?
1>
1*
19
07
08
11
0)
0(
18
01
06
12
1&
0%
16
02
14
1%
0$
04
1$
1#
0#
#141000
b1101 !
1@
0*
0:
09
17
1)
08
11
0'
0&
06
12
0%
14
0$
1#
#142000
b1111 !
b1110 !
0@
1?
1*
1:
0)
1(
1'
#143000
b1111 !
1@
0*
0:
19
1)
0'
1&
#144000
b11111 !
b10111 !
b10011 !
b10001 !
b10000 !
0@
0?
0>
0=
1<
1*
09
07
16
02
04
13
0)
0(
18
01
14
03
0&
1$
0#
1"
06
1%
1#
0"
0$
#145000
b10001 !
1@
0*
1:
1)
1'
#146000
b10011 !
b10010 !
0@
1?
1*
0:
19
0)
1(
0'
1&
#147000
b10011 !
1@
0*
1:
1)
1'
#148000
b10111 !
b10101 !
b10100 !
0@
0?
1>
1*
09
08
15
0)
0(
16
0&
0%
1$
#149000
b10101 !
1@
0*
0:
19
1)
0'
1&
#150000
b10111 !
b10110 !
0@
1?
1*
1:
0)
1(
1'
#151000
b10111 !
1@
0*
0:
09
17
1)
18
11
0'
0&
1%
#152000
b11111 !
b11011 !
b11001 !
b11000 !
0@
0?
0>
1=
1*
19
07
08
05
06
12
0)
0(
18
01
04
13
1&
0%
0$
16
02
1%
0#
1"
14
03
1$
1#
0"
#153000
b11001 !
1@
0*
1:
1)
1'
#154000
b11011 !
b11010 !
0@
1?
1*
0:
09
17
0)
1(
08
11
0'
0&
06
12
0%
04
13
0$
0#
1"
#155000
b11011 !
1@
0*
1:
1)
1'
#156000
b11111 !
b11101 !
b11100 !
0@
0?
1>
1*
19
07
18
15
0)
0(
08
01
1&
1%
0%
#157000
b11101 !
1@
0*
0:
09
17
1)
18
11
0'
0&
1%
#158000
b11111 !
b11110 !
0@
1?
1*
1:
0)
1(
1'
#159000
b11111 !
1@
0*
0:
19
1)
0'
1&
#160000
b111111 !
b101111 !
b100111 !
b100011 !
b100001 !
b100000 !
0@
0?
0>
0=
0<
1;
1*
09
07
05
01
14
0)
0(
08
16
02
0&
1#
04
0%
1$
0#
#161000
b100001 !
1@
0*
1:
1)
1'
#162000
b100011 !
b100010 !
0@
1?
1*
0:
19
0)
1(
0'
1&
#163000
b100011 !
1@
0*
1:
1)
1'
#164000
b100111 !
b100101 !
b100100 !
0@
0?
1>
1*
09
18
0)
0(
0&
1%
#165000
b100101 !
1@
0*
0:
19
1)
0'
1&
#166000
b100111 !
b100110 !
0@
1?
1*
1:
0)
1(
1'
#167000
b100111 !
1@
0*
0:
09
17
1)
08
11
0'
0&
06
12
0%
14
0$
1#
#168000
b101111 !
b101011 !
b101001 !
b101000 !
0@
0?
0>
1=
1*
19
07
18
01
16
0)
0(
08
06
1&
1%
1$
0%
0$
#169000
b101001 !
1@
0*
1:
1)
1'
#170000
b101011 !
b101010 !
0@
1?
1*
0:
09
17
0)
1(
18
0'
0&
1%
#171000
b101011 !
1@
0*
1:
1)
1'
#172000
b101111 !
b101101 !
b101100 !
0@
0?
1>
1*
19
07
08
11
0)
0(
18
01
16
1&
0%
06
1%
1$
0$
#173000
b101101 !
1@
0*
0:
09
17
1)
08
11
0'
0&
16
0%
1$
#174000
b101111 !
b101110 !
0@
1?
1*
1:
0)
1(
1'
#175000
b101111 !
1@
0*
0:
19
1)
0'
1&
#176000
b111111 !
b110111 !
b110011 !
b110001 !
b110000 !
0@
0?
0>
0=
1<
1*
09
07
06
04
03
0)
0(
18
01
0&
0$
0#
0"
16
02
1%
14
13
1$
1#
1"
#177000
b110001 !
1@
0*
1:
1)
1'
#178000
b110011 !
b110010 !
0@
1?
1*
0:
19
0)
1(
0'
1&
#179000
b110011 !
1@
0*
1:
1)
1'
#180000
b110111 !
b110101 !
b110100 !
0@
0?
1>
1*
09
08
15
0)
0(
06
12
0&
0%
04
03
0$
0#
0"
#181000
b110101 !
1@
0*
0:
19
1)
0'
1&
#182000
b110111 !
b110110 !
0@
1?
1*
1:
0)
1(
1'
#183000
b110111 !
1@
0*
0:
09
17
1)
18
11
0'
0&
1%
#184000
b111111 !
b111011 !
b111001 !
b111000 !
0@
0?
0>
1=
1*
19
07
08
05
16
0)
0(
18
01
1&
0%
1$
06
1%
0$
#185000
b111001 !
1@
0*
1:
1)
1'
#186000
b111011 !
b111010 !
0@
1?
1*
0:
09
17
0)
1(
08
11
0'
0&
16
0%
1$
#187000
b111011 !
1@
0*
1:
1)
1'
#188000
b111111 !
b111101 !
b111100 !
0@
0?
1>
1*
19
07
18
15
0)
0(
08
01
1&
1%
0%
#189000
b111101 !
1@
0*
0:
09
17
1)
18
11
0'
0&
1%
#190000
b111111 !
b111110 !
0@
1?
1*
1:
0)
1(
1'
#191000
b111111 !
1@
0*
0:
19
1)
0'
1&
#192000
b11111 !
b1111 !
b111 !
b11 !
b1 !
b0 !
0@
0?
0>
0=
0<
0;
1*
09
07
05
01
02
14
0)
0(
08
06
04
0&
1#
0%
0$
0#
#193000
b1 !
1@
0*
1:
1)
1'
#194000
b11 !
b10 !
0@
1?
1*
0:
19
0)
1(
0'
1&
#195000
b11 !
1@
0*
1:
1)
1'
#196000
b111 !
b101 !
b100 !
0@
0?
1>
1*
09
18
0)
0(
0&
1%
#197000
b101 !
1@
0*
0:
19
1)
0'
1&
#198000
b111 !
b110 !
0@
1?
1*
1:
0)
1(
1'
#199000
b111 !
1@
0*
0:
09
17
1)
08
11
0'
0&
16
0%
1$
#200000
b1111 !
b1011 !
b1001 !
b1000 !
0@
0?
0>
1=
1*
19
07
18
01
06
12
0)
0(
08
16
02
14
1&
1%
0$
04
0%
1$
1#
0#
#201000
b1001 !
1@
0*
1:
1)
1'
#202000
b1011 !
b1010 !
0@
1?
1*
0:
09
17
0)
1(
18
0'
0&
1%
#203000
b1011 !
1@
0*
1:
1)
1'
#204000
b1111 !
b1101 !
b1100 !
0@
0?
1>
1*
19
07
08
11
0)
0(
18
01
06
12
1&
0%
16
02
14
1%
0$
04
1$
1#
0#
#205000
b1101 !
1@
0*
0:
09
17
1)
08
11
0'
0&
06
12
0%
14
0$
1#
#206000
b1111 !
b1110 !
0@
1?
1*
1:
0)
1(
1'
#207000
b1111 !
1@
0*
0:
19
1)
0'
1&
#208000
b11111 !
b10111 !
b10011 !
b10001 !
b10000 !
0@
0?
0>
0=
1<
1*
09
07
16
02
04
13
0)
0(
18
01
14
03
0&
1$
0#
1"
06
1%
1#
0"
0$
#209000
b10001 !
1@
0*
1:
1)
1'
#210000
b10011 !
b10010 !
0@
1?
1*
0:
19
0)
1(
0'
1&
#211000
b10011 !
1@
0*
1:
1)
1'
#212000
b10111 !
b10101 !
b10100 !
0@
0?
1>
1*
09
08
15
0)
0(
16
0&
0%
1$
#213000
b10101 !
1@
0*
0:
19
1)
0'
1&
#214000
b10111 !
b10110 !
0@
1?
1*
1:
0)
1(
1'
#215000
b10111 !
1@
0*
0:
09
17
1)
18
11
0'
0&
1%
#216000
b11111 !
b11011 !
b11001 !
b11000 !
0@
0?
0>
1=
1*
19
07
08
05
06
12
0)
0(
18
01
04
13
1&
0%
0$
16
02
1%
0#
1"
14
03
1$
1#
0"
#217000
b11001 !
1@
0*
1:
1)
1'
#218000
b11011 !
b11010 !
0@
1?
1*
0:
09
17
0)
1(
08
11
0'
0&
06
12
0%
04
13
0$
0#
1"
#219000
b11011 !
1@
0*
1:
1)
1'
#220000
b11111 !
b11101 !
b11100 !
0@
0?
1>
1*
19
07
18
15
0)
0(
08
01
1&
1%
0%
#221000
b11101 !
1@
0*
0:
09
17
1)
18
11
0'
0&
1%
#222000
b11111 !
b11110 !
0@
1?
1*
1:
0)
1(
1'
#223000
b11111 !
1@
0*
0:
19
1)
0'
1&
#224000
b111111 !
b101111 !
b100111 !
b100011 !
b100001 !
b100000 !
0@
0?
0>
0=
0<
1;
1*
09
07
05
01
14
0)
0(
08
16
02
0&
1#
04
0%
1$
0#
#225000
b100001 !
1@
0*
1:
1)
1'
#226000
b100011 !
b100010 !
0@
1?
1*
0:
19
0)
1(
0'
1&
#227000
b100011 !
1@
0*
1:
1)
1'
#228000
b100111 !
b100101 !
b100100 !
0@
0?
1>
1*
09
18
0)
0(
0&
1%
#229000
b100101 !
1@
0*
0:
19
1)
0'
1&
#230000
b100111 !
b100110 !
0@
1?
1*
1:
0)
1(
1'
#231000
b100111 !
1@
0*
0:
09
17
1)
08
11
0'
0&
06
12
0%
14
0$
1#
#232000
b101111 !
b101011 !
b101001 !
b101000 !
0@
0?
0>
1=
1*
19
07
18
01
16
0)
0(
08
06
1&
1%
1$
0%
0$
#233000
b101001 !
1@
0*
1:
1)
1'
#234000
b101011 !
b101010 !
0@
1?
1*
0:
09
17
0)
1(
18
0'
0&
1%
#235000
b101011 !
1@
0*
1:
1)
1'
#236000
b101111 !
b101101 !
b101100 !
0@
0?
1>
1*
19
07
08
11
0)
0(
18
01
16
1&
0%
06
1%
1$
0$
#237000
b101101 !
1@
0*
0:
09
17
1)
08
11
0'
0&
16
0%
1$
#238000
b101111 !
b101110 !
0@
1?
1*
1:
0)
1(
1'
#239000
b101111 !
1@
0*
0:
19
1)
0'
1&
#240000
b111111 !
b110111 !
b110011 !
b110001 !
b110000 !
0@
0?
0>
0=
1<
1*
09
07
06
04
03
0)
0(
18
01
0&
0$
0#
0"
16
02
1%
14
13
1$
1#
1"
#241000
b110001 !
1@
0*
1:
1)
1'
#242000
b110011 !
b110010 !
0@
1?
1*
0:
19
0)
1(
0'
1&
#243000
b110011 !
1@
0*
1:
1)
1'
#244000
b110111 !
b110101 !
b110100 !
0@
0?
1>
1*
09
08
15
0)
0(
06
12
0&
0%
04
03
0$
0#
0"
#245000
b110101 !
1@
0*
0:
19
1)
0'
1&
#246000
b110111 !
b110110 !
0@
1?
1*
1:
0)
1(
1'
#247000
b110111 !
1@
0*
0:
09
17
1)
18
11
0'
0&
1%
#248000
b111111 !
b111011 !
b111001 !
b111000 !
0@
0?
0>
1=
1*
19
07
08
05
16
0)
0(
18
01
1&
0%
1$
06
1%
0$
#249000
b111001 !
1@
0*
1:
1)
1'
#250000
b111011 !
b111010 !
0@
1?
1*
0:
09
17
0)
1(
08
11
0'
0&
16
0%
1$
#251000
b111011 !
1@
0*
1:
1)
1'
#252000
b111111 !
b111101 !
b111100 !
0@
0?
1>
1*
19
07
18
15
0)
0(
08
01
1&
1%
0%
#253000
b111101 !
1@
0*
0:
09
17
1)
18
11
0'
0&
1%
#254000
b111111 !
b111110 !
0@
1?
1*
1:
0)
1(
1'
#255000
b111111 !
1@
0*
0:
19
1)
0'
1&
#256000
b11111 !
b1111 !
b111 !
b11 !
b1 !
b0 !
0@
0?
0>
0=
0<
0;
1*
09
07
05
01
02
14
0)
0(
08
06
04
0&
1#
0%
0$
0#
#257000
b1 !
1@
0*
1:
1)
1'
#258000
b11 !
b10 !
0@
1?
1*
0:
19
0)
1(
0'
1&
#259000
b11 !
1@
0*
1:
1)
1'
#260000
b111 !
b101 !
b100 !
0@
0?
1>
1*
09
18
0)
0(
0&
1%
#261000
b101 !
1@
0*
0:
19
1)
0'
1&
#262000
b111 !
b110 !
0@
1?
1*
1:
0)
1(
1'
#263000
b111 !
1@
0*
0:
09
17
1)
08
11
0'
0&
16
0%
1$
#264000
b1111 !
b1011 !
b1001 !
b1000 !
0@
0?
0>
1=
1*
19
07
18
01
06
12
0)
0(
08
16
02
14
1&
1%
0$
04
0%
1$
1#
0#
#265000
b1001 !
1@
0*
1:
1)
1'
#266000
b1011 !
b1010 !
0@
1?
1*
0:
09
17
0)
1(
18
0'
0&
1%
#267000
b1011 !
1@
0*
1:
1)
1'
#268000
b1111 !
b1101 !
b1100 !
0@
0?
1>
1*
19
07
08
11
0)
0(
18
01
06
12
1&
0%
16
02
14
1%
0$
04
1$
1#
0#
#269000
b1101 !
1@
0*
0:
09
17
1)
08
11
0'
0&
06
12
0%
14
0$
1#
#270000
b1111 !
b1110 !
0@
1?
1*
1:
0)
1(
1'
#271000
b1111 !
1@
0*
0:
19
1)
0'
1&
#272000
b11111 !
b10111 !
b10011 !
b10001 !
b10000 !
0@
0?
0>
0=
1<
1*
09
07
16
02
04
13
0)
0(
18
01
14
03
0&
1$
0#
1"
06
1%
1#
0"
0$
#273000
b10001 !
1@
0*
1:
1)
1'
#274000
b10011 !
b10010 !
0@
1?
1*
0:
19
0)
1(
0'
1&
#275000
b10011 !
1@
0*
1:
1)
1'
#276000
b10111 !
b10101 !
b10100 !
0@
0?
1>
1*
09
08
15
0)
0(
16
0&
0%
1$
#277000
b10101 !
1@
0*
0:
19
1)
0'
1&
#278000
b10111 !
b10110 !
0@
1?
1*
1:
0)
1(
1'
#279000
b10111 !
1@
0*
0:
09
17
1)
18
11
0'
0&
1%
#280000
b11111 !
b11011 !
b11001 !
b11000 !
0@
0?
0>
1=
1*
19
07
08
05
06
12
0)
0(
18
01
04
13
1&
0%
0$
16
02
1%
0#
1"
14
03
1$
1#
0"
#281000
b11001 !
1@
0*
1:
1)
1'
#282000
b11011 !
b11010 !
0@
1?
1*
0:
09
17
0)
1(
08
11
0'
0&
06
12
0%
04
13
0$
0#
1"
#283000
b11011 !
1@
0*
1:
1)
1'
#284000
b11111 !
b11101 !
b11100 !
0@
0?
1>
1*
19
07
18
15
0)
0(
08
01
1&
1%
0%
#285000
b11101 !
1@
0*
0:
09
17
1)
18
11
0'
0&
1%
#286000
b11111 !
b11110 !
0@
1?
1*
1:
0)
1(
1'
#287000
b11111 !
1@
0*
0:
19
1)
0'
1&
#288000
b111111 !
b101111 !
b100111 !
b100011 !
b100001 !
b100000 !
0@
0?
0>
0=
0<
1;
1*
09
07
05
01
14
0)
0(
08
16
02
0&
1#
04
0%
1$
0#
#289000
b100001 !
1@
0*
1:
1)
1'
#290000
b100011 !
b100010 !
0@
1?
1*
0:
19
0)
1(
0'
1&
#291000
b100011 !
1@
0*
1:
1)
1'
#292000
b100111 !
b100101 !
b100100 !
0@
0?
1>
1*
09
18
0)
0(
0&
1%
#293000
b100101 !
1@
0*
0:
19
1)
0'
1&
#294000
b100111 !
b100110 !
0@
1?
1*
1:
0)
1(
1'
#295000
b100111 !
1@
0*
0:
09
17
1)
08
11
0'
0&
06
12
0%
14
0$
1#
#296000
b101111 !
b101011 !
b101001 !
b101000 !
0@
0?
0>
1=
1*
19
07
18
01
16
0)
0(
08
06
1&
1%
1$
0%
0$
#297000
b101001 !
1@
0*
1:
1)
1'
#298000
b101011 !
b101010 !
0@
1?
1*
0:
09
17
0)
1(
18
0'
0&
1%
#299000
b101011 !
1@
0*
1:
1)
1'
#300000
b101111 !
b101101 !
b101100 !
0@
0?
1>
1*
19
07
08
11
0)
0(
18
01
16
1&
0%
06
1%
1$
0$
#301000
b101101 !
1@
0*
0:
09
17
1)
08
11
0'
0&
16
0%
1$
#302000
b101111 !
b101110 !
0@
1?
1*
1:
0)
1(
1'
#303000
b101111 !
1@
0*
0:
19
1)
0'
1&
#304000
b111111 !
b110111 !
b110011 !
b110001 !
b110000 !
0@
0?
0>
0=
1<
1*
09
07
06
04
03
0)
0(
18
01
0&
0$
0#
0"
16
02
1%
14
13
1$
1#
1"
#305000
b110001 !
1@
0*
1:
1)
1'
#306000
b110011 !
b110010 !
0@
1?
1*
0:
19
0)
1(
0'
1&
#307000
b110011 !
1@
0*
1:
1)
1'
#308000
b110111 !
b110101 !
b110100 !
0@
0?
1>
1*
09
08
15
0)
0(
06
12
0&
0%
04
03
0$
0#
0"
#309000
b110101 !
1@
0*
0:
19
1)
0'
1&
