Lab4/simulation_bac/qsim/lab4.msim.vcd
$comment
	File created using the following command:
		vcd file lab4.msim.vcd -direction
$end
$date
	Wed Nov 22 13:25:30 2017
$end
$version
	ModelSim Version 10.1d
$end
$timescale
	1ps
$end
$scope module deal_schematic_vlg_vec_tst $end
$var reg 1 ! clk $end
$var reg 1 " rand_lt_num $end
$var reg 1 # request_deal $end
$var reg 1 $ reset $end
$var wire 1 % rand_enable $end
$var wire 1 & stack_enable $end
$var wire 1 ' sampler $end
$scope module i1 $end
$var wire 1 ( gnd $end
$var wire 1 ) vcc $end
$var wire 1 * unknown $end
$var tri1 1 + devclrn $end
$var tri1 1 , devpor $end
$var tri1 1 - devoe $end
$var wire 1 . clk~combout $end
$var wire 1 / clk~clkctrl_outclk $end
$var wire 1 0 request_deal~combout $end
$var wire 1 1 rand_lt_num~combout $end
$var wire 1 2 inst|state~7_combout $end
$var wire 1 3 reset~combout $end
$var wire 1 4 reset~clkctrl_outclk $end
$var wire 1 5 inst|state.s2~regout $end
$var wire 1 6 inst|Selector0~0_combout $end
$var wire 1 7 inst|state.s0~regout $end
$var wire 1 8 inst|Selector1~0_combout $end
$var wire 1 9 inst|state.s1~regout $end
$upscope $end
$upscope $end
$enddefinitions $end
#0
$dumpvars
0!
0"
0#
0$
0%
0&
x'
0(
1)
x*
1+
1,
1-
0.
0/
00
01
02
03
04
05
06
07
08
09
$end
#5000
1"
11
0'
#10000
1!
0"
1.
01
1/
1'
#15000
1"
11
0'
#20000
1#
0!
10
0.
0/
1'
18
16
#25000
0"
01
0'
#30000
1!
1"
1.
11
1/
1'
19
17
08
12
1%
#40000
0!
0"
0.
01
0/
0'
18
02
#50000
1!
1.
1/
1'
#60000
0#
0!
00
0.
0/
0'
#70000
1!
1.
1/
1'
#80000
1#
0!
10
0.
0/
0'
#90000
1!
1.
1/
1'
#95000
1"
11
0'
08
12
#100000
0#
0!
00
0.
0/
1'
#105000
0"
01
0'
18
02
#110000
1!
1.
1/
1'
#120000
1"
0!
11
0.
0/
0'
08
12
#125000
0"
01
1'
18
02
#130000
1!
1"
1.
11
1/
0'
08
12
#140000
0!
0"
0.
01
0/
1'
18
02
#145000
1"
11
0'
08
12
#150000
1!
1.
1/
1'
09
15
02
06
0%
1&
#160000
1#
0!
10
0.
0/
0'
#170000
0"
1!
01
1.
1/
1'
07
05
18
16
0&
#175000
1"
11
0'
#180000
0#
0!
0"
00
0.
01
0/
1'
08
06
#190000
1!
1"
1.
11
1/
0'
#200000
1#
0!
10
0.
0/
1'
18
16
#205000
0"
01
0'
#210000
1!
1.
1/
1'
19
17
1%
#220000
0!
0.
0/
0'
#225000
1"
11
1'
08
12
#230000
1!
0"
1.
01
1/
0'
18
02
09
15
08
06
0%
1&
#235000
1"
11
1'
#240000
0!
0"
0.
01
0/
0'
#245000
1"
11
1'
#250000
1!
0"
1.
01
1/
0'
07
05
18
16
0&
#260000
0#
0!
1"
00
0.
11
0/
1'
08
06
#265000
0"
01
0'
#270000
1!
1.
1/
1'
#280000
1#
0!
10
0.
0/
0'
18
16
#290000
1!
1.
1/
1'
19
17
1%
#295000
1"
11
0'
08
12
#300000
0!
0"
0.
01
0/
1'
18
02
#305000
1"
11
0'
08
12
#310000
1!
0"
1.
01
1/
1'
18
02
09
15
08
06
0%
1&
#320000
0#
0!
00
0.
0/
0'
#325000
1"
11
1'
#330000
1!
0"
1.
01
1/
0'
07
05
0&
#335000
1"
11
1'
#340000
0!
0.
0/
0'
#345000
0"
01
1'
#350000
1!
1"
1.
11
1/
0'
#355000
0"
01
1'
#360000
0!
1"
0.
11
0/
0'
#370000
1!
0"
1.
01
1/
1'
#380000
1#
0!
1"
10
0.
11
0/
0'
18
16
#385000
0"
01
1'
#390000
1!
1.
1/
0'
19
17
1%
#400000
1"
0!
11
0.
0/
1'
08
12
#410000
0"
1!
01
1.
1/
0'
18
02
09
15
08
06
0%
1&
#415000
1"
11
1'
#420000
0!
0"
0.
01
0/
0'
#430000
1!
1"
1.
11
1/
1'
07
05
18
16
0&
#435000
0"
01
0'
#440000
0#
0!
1"
00
0.
11
0/
1'
08
06
#450000
1!
1.
1/
0'
#460000
0!
0.
0/
1'
#470000
0"
1!
01
1.
1/
0'
#480000
1#
1"
0!
10
11
0.
0/
1'
18
16
#485000
0"
01
0'
#490000
1!
1"
1.
11
1/
1'
19
17
08
12
1%
#495000
0"
01
0'
18
02
#500000
0#
0!
00
0.
0/
1'
#510000
1"
1!
11
1.
1/
0'
08
12
#520000
0"
0!
01
0.
0/
1'
18
02
#530000
1!
1.
1/
0'
#540000
1"
0!
11
0.
0/
1'
08
12
#545000
0"
01
0'
18
02
#550000
1!
1"
1.
11
1/
1'
08
12
#555000
0"
01
0'
18
02
#560000
0!
1"
0.
11
0/
1'
08
12
#570000
1!
0"
1.
01
1/
0'
18
02
09
15
08
06
0%
1&
#575000
1"
11
1'
#580000
1#
0!
10
0.
0/
0'
#590000
0"
1!
01
1.
1/
1'
07
05
18
16
0&
#600000
0!
0.
0/
0'
#605000
1"
11
1'
#610000
1!
0"
1.
01
1/
0'
19
17
1%
#620000
0!
1"
0.
11
0/
1'
08
12
#625000
0"
01
0'
18
02
#630000
1!
1.
1/
1'
#635000
1"
11
0'
08
12
#640000
0#
0!
0"
00
0.
01
0/
1'
18
02
#650000
1!
1"
1.
11
1/
0'
08
12
#660000
1#
0!
10
0.
0/
1'
#670000
0"
1!
01
1.
1/
0'
18
02
09
15
08
06
0%
1&
#675000
1"
11
1'
#680000
0!
0"
0.
01
0/
0'
#685000
1"
11
1'
#690000
1!
0"
1.
01
1/
0'
07
05
18
16
0&
#700000
0!
0.
0/
1'
#705000
1"
11
0'
#710000
1!
1.
1/
1'
19
17
08
12
1%
#720000
0"
0!
01
0.
0/
0'
18
02
#730000
1"
1!
11
1.
1/
1'
08
12
#735000
0"
01
0'
18
02
#740000
0#
0!
00
0.
0/
1'
#745000
1"
11
0'
08
12
#750000
1!
0"
1.
01
1/
1'
18
02
09
15
08
06
0%
1&
#755000
1"
11
0'
#760000
0!
0.
0/
1'
#765000
0"
01
0'
#770000
1!
1.
1/
1'
07
05
0&
#780000
1"
0!
11
0.
0/
0'
#790000
1!
1.
1/
1'
#800000
0!
0.
0/
0'
#810000
0"
1!
01
1.
1/
1'
#815000
1"
11
0'
#820000
0!
0"
0.
01
0/
1'
#825000
1"
11
0'
#830000
1!
0"
1.
01
1/
1'
#835000
1"
11
0'
#840000
1#
0!
10
0.
0/
1'
18
16
#845000
0"
01
0'
#850000
1!
1.
1/
1'
19
17
1%
#860000
0#
1"
0!
00
11
0.
0/
0'
08
12
#870000
1!
1.
1/
1'
09
15
02
06
0%
1&
#875000
0"
01
0'
#880000
1#
0!
10
0.
0/
1'
#885000
1"
11
0'
#890000
1!
1.
1/
1'
07
05
18
16
0&
#895000
0"
01
0'
#900000
0!
1"
0.
11
0/
1'
#905000
0"
01
0'
#910000
1!
1"
1.
11
1/
1'
19
17
08
12
1%
#915000
0"
01
0'
18
02
#920000
0#
0!
00
0.
0/
1'
#930000
1!
1.
1/
0'
#940000
1"
1#
0!
11
10
0.
0/
1'
08
12
#945000
0"
01
0'
18
02
#950000
1!
1.
1/
1'
#955000
1"
11
0'
08
12
#960000
0!
0"
0.
01
0/
1'
18
02
#965000
1"
11
0'
08
12
#970000
1!
1.
1/
1'
09
15
02
06
0%
1&
#975000
0"
01
0'
#980000
0!
1"
0.
11
0/
1'
#985000
0"
01
0'
#990000
1!
1"
1.
11
1/
1'
07
05
18
16
0&
