Lab4/simulation/qsim/lab4.msim.vcd
$comment
	File created using the following command:
		vcd file lab4.msim.vcd -direction
$end
$date
	Tue Nov 21 17:25:19 2017
$end
$version
	ModelSim Version 10.1d
$end
$timescale
	1ps
$end
$scope module g27_dealer_vlg_vec_tst $end
$var reg 1 ! clk $end
$var reg 1 " rand_lt_num $end
$var reg 1 # request_deal $end
$var reg 1 $ reset $end
$var wire 1 % rand_enable $end
$var wire 1 & stack_enable $end
$var wire 1 ' sampler $end
$scope module i1 $end
$var wire 1 ( gnd $end
$var wire 1 ) vcc $end
$var wire 1 * unknown $end
$var tri1 1 + devclrn $end
$var tri1 1 , devpor $end
$var tri1 1 - devoe $end
$var wire 1 . clk~combout $end
$var wire 1 / request_deal~combout $end
$var wire 1 0 rand_lt_num~combout $end
$var wire 1 1 Selector0~0_combout $end
$var wire 1 2 reset~combout $end
$var wire 1 3 state.s0~regout $end
$var wire 1 4 Selector1~0_combout $end
$var wire 1 5 state.s1~regout $end
$var wire 1 6 state~7_combout $end
$var wire 1 7 state.s2~regout $end
$upscope $end
$upscope $end
$enddefinitions $end
#0
$dumpvars
0!
0"
1#
0$
0%
0&
x'
0(
1)
x*
1+
1,
1-
0.
1/
00
11
02
03
14
05
06
07
$end
#10000
1!
1.
0'
15
13
1%
#20000
0!
0.
1'
#30000
1!
1.
0'
#40000
1"
0!
10
0.
1'
16
04
#50000
1!
1.
0'
17
05
01
06
1&
0%
#60000
0#
0!
0/
0.
1'
#70000
1!
1.
0'
07
03
0&
#80000
0"
0!
00
0.
1'
#90000
1!
1.
0'
#100000
0!
0.
1'
#110000
1!
1.
0'
#120000
1#
1"
0!
1/
10
0.
1'
14
11
#130000
1!
1.
0'
15
13
16
04
1%
#140000
0!
0.
1'
#150000
1!
1.
0'
17
05
01
06
1&
0%
#160000
0"
0!
00
0.
1'
#170000
1!
1.
0'
07
03
11
14
0&
#180000
0#
0!
0/
0.
1'
04
01
#190000
1!
1.
0'
#200000
1"
0!
10
0.
1'
#210000
1!
1.
0'
#220000
0!
0.
1'
#230000
1!
1.
0'
#240000
1#
0"
0!
1/
00
0.
1'
14
11
#250000
1!
1.
0'
15
13
1%
#260000
0!
0.
1'
#270000
1!
1.
0'
#280000
1"
0!
10
0.
1'
16
04
#290000
1!
1.
0'
17
05
01
06
1&
0%
#300000
0#
0!
0/
0.
1'
#310000
1!
1.
0'
07
03
0&
#320000
0"
0!
00
0.
1'
#330000
1!
1.
0'
#340000
0!
0.
1'
#350000
1!
1.
0'
#360000
1#
1"
0!
1/
10
0.
1'
14
11
#370000
1!
1.
0'
15
13
16
04
1%
#380000
0!
0.
1'
#390000
1!
1.
0'
17
05
01
06
1&
0%
#400000
0"
0!
00
0.
1'
#410000
1!
1.
0'
07
03
11
14
0&
#420000
0#
0!
0/
0.
1'
04
01
#430000
1!
1.
0'
#440000
1"
0!
10
0.
1'
#450000
1!
1.
0'
#460000
0!
0.
1'
#470000
1!
1.
0'
#480000
1#
0"
0!
1/
00
0.
1'
14
11
#490000
1!
1.
0'
15
13
1%
#500000
0!
0.
1'
#510000
1!
1.
0'
#520000
1"
0!
10
0.
1'
16
04
#530000
1!
1.
0'
17
05
01
06
1&
0%
#540000
0#
0!
0/
0.
1'
#550000
1!
1.
0'
07
03
0&
#560000
0"
0!
00
0.
1'
#570000
1!
1.
0'
#580000
0!
0.
1'
#590000
1!
1.
0'
#600000
1#
1"
0!
1/
10
0.
1'
14
11
#610000
1!
1.
0'
15
13
16
04
1%
#620000
0!
0.
1'
#630000
1!
1.
0'
17
05
01
06
1&
0%
#640000
0"
0!
00
0.
1'
#650000
1!
1.
0'
07
03
11
14
0&
#660000
0#
0!
0/
0.
1'
04
01
#670000
1!
1.
0'
#680000
1"
0!
10
0.
1'
#690000
1!
1.
0'
#700000
0!
0.
1'
#710000
1!
1.
0'
#720000
1#
0"
0!
1/
00
0.
1'
14
11
#730000
1!
1.
0'
15
13
1%
#740000
0!
0.
1'
#750000
1!
1.
0'
#760000
1"
0!
10
0.
1'
16
04
#770000
1!
1.
0'
17
05
01
06
1&
0%
#780000
0#
0!
0/
0.
1'
#790000
1!
1.
0'
07
03
0&
#800000
0"
0!
00
0.
1'
#810000
1!
1.
0'
#820000
0!
0.
1'
#830000
1!
1.
0'
#840000
1#
1"
0!
1/
10
0.
1'
14
11
#850000
1!
1.
0'
15
13
16
04
1%
#860000
0!
0.
1'
#870000
1!
1.
0'
17
05
01
06
1&
0%
#880000
0"
0!
00
0.
1'
#890000
1!
1.
0'
07
03
11
14
0&
#900000
0#
0!
0/
0.
1'
04
01
#910000
1!
1.
0'
#920000
1"
0!
10
0.
1'
#930000
1!
1.
0'
#940000
0!
0.
1'
#950000
1!
1.
0'
#960000
1#
0"
0!
1/
00
0.
1'
14
11
#970000
1!
1.
0'
15
13
1%
#980000
0!
0.
1'
#990000
1!
1.
0'
